hw2pt2/XX1011074/P7/top_tb.vcd
$date
	Mon Dec  3 23:23:54 2012
$end
$version
	Icarus Verilog
$end
$timescale
	10ps
$end
$scope module top_tb $end
$var wire 15 ! DM_address [14:0] $end
$var wire 1 " DM_enable $end
$var wire 32 # DM_in [31:0] $end
$var wire 32 $ DM_out [31:0] $end
$var wire 1 % DM_read $end
$var wire 1 & DM_write $end
$var wire 10 ' IM_address [9:0] $end
$var wire 1 ( IM_enable $end
$var wire 32 ) IM_in [31:0] $end
$var wire 1 * IM_read $end
$var wire 1 + IM_write $end
$var wire 14 , MEM_addr [13:0] $end
$var wire 32 - MEM_data [31:0] $end
$var wire 1 . MEM_en $end
$var wire 1 / MEM_read $end
$var wire 1 0 MEM_write $end
$var wire 128 1 cycle_cnt [127:0] $end
$var wire 64 2 ins_cnt [63:0] $end
$var wire 32 3 instruction [31:0] $end
$var wire 8 4 rom_address [7:0] $end
$var wire 1 5 rom_enable $end
$var wire 36 6 rom_out [35:0] $end
$var wire 1 7 rom_read $end
$var reg 1 8 clk $end
$var integer 32 9 i [31:0] $end
$var reg 1 : rst $end
$var reg 1 ; system_enable $end
$scope module TOP $end
$var wire 128 < Cycle_cnt [127:0] $end
$var wire 15 = DM_address [14:0] $end
$var wire 1 " DM_enable $end
$var wire 32 > DM_in [31:0] $end
$var wire 32 ? DM_out [31:0] $end
$var wire 1 % DM_read $end
$var wire 1 & DM_write $end
$var wire 10 @ IM_address [9:0] $end
$var wire 1 ( IM_enable $end
$var wire 32 A IM_in [31:0] $end
$var wire 1 * IM_read $end
$var wire 1 + IM_write $end
$var wire 64 B Ins_cnt [63:0] $end
$var wire 14 C MEM_addr [13:0] $end
$var wire 32 D MEM_data [31:0] $end
$var wire 1 . MEM_en $end
$var wire 1 / MEM_read $end
$var wire 1 0 MEM_write $end
$var wire 10 E PC [9:0] $end
$var wire 5 F addressT [4:0] $end
$var wire 1 G alu32_overflow $end
$var wire 32 H alu32_result [31:0] $end
$var wire 2 I alu_scr_select1 [1:0] $end
$var wire 2 J alu_scr_select2 [1:0] $end
$var wire 1 K clk $end
$var wire 1 L enable_alu_execute $end
$var wire 1 M enable_pc_set $end
$var wire 1 N enable_reg_read $end
$var wire 1 O enable_reg_write $end
$var wire 1 P eop $end
$var wire 1 Q exe_ir_done $end
$var wire 14 R imm14 [13:0] $end
$var wire 15 S imm15 [14:0] $end
$var wire 20 T imm20 [19:0] $end
$var wire 24 U imm24 [23:0] $end
$var wire 5 V imm5 [4:0] $end
$var wire 32 W imm_out [31:0] $end
$var wire 3 X imm_select [2:0] $end
$var wire 32 Y instruction [31:0] $end
$var wire 10 Z ir_IM_address [9:0] $end
$var wire 1 [ ir_IM_enable $end
$var wire 1 \ ir_IM_read $end
$var wire 1 ] ir_IM_write $end
$var wire 1 ^ ir_enable $end
$var wire 1 _ load_im_done $end
$var wire 10 ` mem_IM_address [9:0] $end
$var wire 1 a mem_IM_enable $end
$var wire 1 b mem_IM_read $end
$var wire 1 c mem_IM_write $end
$var wire 6 d opcode [5:0] $end
$var wire 5 e read_address1 [4:0] $end
$var wire 5 f read_address2 [4:0] $end
$var wire 32 g read_data1 [31:0] $end
$var wire 32 h read_data2 [31:0] $end
$var wire 32 i read_dataT [31:0] $end
$var wire 8 j rom_address [7:0] $end
$var wire 1 k rom_done $end
$var wire 1 5 rom_enable $end
$var wire 36 l rom_out [35:0] $end
$var wire 1 7 rom_read $end
$var wire 1 m rst $end
$var wire 32 n scr_out1 [31:0] $end
$var wire 32 o scr_out2 [31:0] $end
$var wire 5 p sub_opcode_5bit [4:0] $end
$var wire 8 q sub_opcode_8bit [7:0] $end
$var wire 2 r sv [1:0] $end
$var wire 1 s system_enable $end
$var wire 16 t total_ir [15:0] $end
$var wire 32 u write_data [31:0] $end
$var wire 2 v writeback_select [1:0] $end
$scope module pc_tick1 $end
$var wire 1 K clock $end
$var wire 1 M enable_pc_set $end
$var wire 1 ^ ir_enable $end
$var wire 1 w local_clock $end
$var wire 32 x pc_set [31:0] $end
$var wire 1 m reset $end
$var reg 128 y cycle_cnt [127:0] $end
$var reg 128 z internal_cycle_cnt [127:0] $end
$var reg 10 { pc [9:0] $end
$upscope $end
$scope module rom_controller1 $end
$var wire 64 | Ins_cnt [63:0] $end
$var wire 1 K clock $end
$var wire 1 P eop $end
$var wire 1 Q exe_ir_done $end
$var wire 1 _ load_im_done $end
$var wire 1 m reset $end
$var wire 1 s system_enable $end
$var reg 1 } ROM_enable $end
$var reg 1 ~ ROM_read $end
$var reg 3 !" current_state [2:0] $end
$var reg 3 "" next_state [2:0] $end
$var reg 1 #" rom_done $end
$var reg 8 $" rom_pc [7:0] $end
$upscope $end
$scope module mem_controller1 $end
$var wire 1 K clock $end
$var wire 1 %" ir_en $end
$var wire 1 &" ir_read $end
$var wire 1 '" ir_rst $end
$var wire 1 (" ir_select $end
$var wire 16 )" ir_size [15:0] $end
$var wire 16 *" ir_start_address [15:0] $end
$var wire 1 m reset $end
$var wire 36 +" rom_ir [35:0] $end
$var wire 16 ," total_ir [15:0] $end
$var reg 3 -" current_state [2:0] $end
$var reg 1 ." eop $end
$var reg 10 /" im_addr [9:0] $end
$var reg 1 0" im_en_read $end
$var reg 1 1" im_en_write $end
$var reg 1 2" im_enable $end
$var reg 1 3" ir_enable $end
$var reg 1 4" load_im_done $end
$var reg 14 5" mem_addr [13:0] $end
$var reg 1 6" mem_en_read $end
$var reg 1 7" mem_en_write $end
$var reg 1 8" mem_enable $end
$var reg 3 9" next_state [2:0] $end
$upscope $end
$scope module ir_conrtoller1 $end
$var wire 10 :" IM_address [9:0] $end
$var wire 10 ;" PC [9:0] $end
$var wire 5 <" addressT [4:0] $end
$var wire 1 K clock $end
$var wire 15 =" imm15 [14:0] $end
$var wire 20 >" imm20 [19:0] $end
$var wire 5 ?" imm5 [4:0] $end
$var wire 32 @" ir [31:0] $end
$var wire 6 A" opcode [5:0] $end
$var wire 5 B" read_address1 [4:0] $end
$var wire 5 C" read_address2 [4:0] $end
$var wire 1 m reset $end
$var wire 5 D" sub_opcode_5bit [4:0] $end
$var wire 8 E" sub_opcode_8bit [7:0] $end
$var wire 2 F" sv [1:0] $end
$var wire 16 G" total_ir [15:0] $end
$var reg 64 H" Ins_cnt [63:0] $end
$var reg 2 I" alu_scr_select1 [1:0] $end
$var reg 2 J" alu_scr_select2 [1:0] $end
$var reg 4 K" current_state [3:0] $end
$var reg 1 L" enable_alu_execute $end
$var reg 1 M" enable_dm $end
$var reg 1 N" enable_dm_fetch $end
$var reg 1 O" enable_dm_write $end
$var reg 1 P" enable_im $end
$var reg 1 Q" enable_im_fetch $end
$var reg 1 R" enable_im_write $end
$var reg 1 S" enable_pc_set $end
$var reg 1 T" enable_reg_read $end
$var reg 1 U" enable_reg_write $end
$var reg 1 V" exe_ir_done $end
$var reg 3 W" imm_select [2:0] $end
$var reg 4 X" next_state [3:0] $end
$var reg 32 Y" present_instruction [31:0] $end
$var reg 2 Z" writeback_select [1:0] $end
$upscope $end
$scope module regfile1 $end
$var wire 5 [" addressT [4:0] $end
$var wire 1 K clk $end
$var wire 1 N read $end
$var wire 5 \" read_address1 [4:0] $end
$var wire 5 ]" read_address2 [4:0] $end
$var wire 1 m reset $end
$var wire 32 ^" rw_reg_0 [31:0] $end
$var wire 32 _" rw_reg_1 [31:0] $end
$var wire 32 `" rw_reg_2 [31:0] $end
$var wire 32 a" rw_reg_28 [31:0] $end
$var wire 32 b" rw_reg_29 [31:0] $end
$var wire 32 c" rw_reg_3 [31:0] $end
$var wire 32 d" rw_reg_30 [31:0] $end
$var wire 32 e" rw_reg_31 [31:0] $end
$var wire 1 O write $end
$var wire 32 f" write_data [31:0] $end
$var integer 32 g" i [31:0] $end
$var reg 32 h" read_data1 [31:0] $end
$var reg 32 i" read_data2 [31:0] $end
$var reg 32 j" read_dataT [31:0] $end
$upscope $end
$scope module alu1 $end
$var wire 1 L enable_execute $end
$var wire 6 k" opcode [5:0] $end
$var wire 1 m reset $end
$var wire 32 l" scr1 [31:0] $end
$var wire 32 m" scr2 [31:0] $end
$var wire 5 n" sub_opcode_5bit [4:0] $end
$var wire 8 o" sub_opcode_8bit [7:0] $end
$var wire 2 p" sv [1:0] $end
$var reg 1 q" a $end
$var reg 1 r" alu_overflow $end
$var reg 32 s" alu_result [31:0] $end
$var reg 1 t" b $end
$var reg 1 u" enable_pc_set $end
$var reg 64 v" rotate [63:0] $end
$upscope $end
$scope module imm_select_mux1 $end
$var wire 14 w" imm_14bit [13:0] $end
$var wire 15 x" imm_15bit [14:0] $end
$var wire 20 y" imm_20bit [19:0] $end
$var wire 24 z" imm_24bit [23:0] $end
$var wire 5 {" imm_5bit [4:0] $end
$var wire 3 |" imm_select [2:0] $end
$var integer 32 }" i [31:0] $end
$var reg 32 ~" imm_out [31:0] $end
$upscope $end
$scope module alu_scr_mux1 $end
$var wire 5 !# addr [4:0] $end
$var wire 2 "# alu_scr_select [1:0] $end
$var wire 32 ## data [31:0] $end
$var wire 32 $# imm [31:0] $end
$var reg 32 %# scr_out [31:0] $end
$upscope $end
$scope module alu_scr_mux2 $end
$var wire 5 &# addr [4:0] $end
$var wire 2 '# alu_scr_select [1:0] $end
$var wire 32 (# data [31:0] $end
$var wire 32 )# imm [31:0] $end
$var reg 32 *# scr_out [31:0] $end
$upscope $end
$scope module writeback_select_mux1 $end
$var wire 32 +# DMout [31:0] $end
$var wire 32 ,# alu_result [31:0] $end
$var wire 32 -# regData [31:0] $end
$var wire 2 .# writeback_select [1:0] $end
$var reg 32 /# write_data [31:0] $end
$upscope $end
$upscope $end
$scope module DM1 $end
$var wire 15 0# DM_address [14:0] $end
$var wire 32 1# DMin [31:0] $end
$var wire 1 K clk $end
$var wire 1 % enable_fetch $end
$var wire 1 " enable_mem $end
$var wire 1 & enable_writeback $end
$var wire 32 2# mem_data_19 [31:0] $end
$var wire 32 3# mem_data_28 [31:0] $end
$var wire 32 4# mem_data_3 [31:0] $end
$var wire 1 m rst $end
$var reg 32 5# DMout [31:0] $end
$var integer 32 6# i [31:0] $end
$upscope $end
$scope module IM1 $end
$var wire 10 7# IM_address [9:0] $end
$var wire 32 8# IMin [31:0] $end
$var wire 1 K clk $end
$var wire 1 * enable_fetch $end
$var wire 1 ( enable_mem $end
$var wire 1 + enable_write $end
$var wire 32 9# mem_data_0 [31:0] $end
$var wire 32 :# mem_data_1 [31:0] $end
$var wire 32 ;# mem_data_10 [31:0] $end
$var wire 32 <# mem_data_11 [31:0] $end
$var wire 32 =# mem_data_12 [31:0] $end
$var wire 32 ># mem_data_13 [31:0] $end
$var wire 32 ?# mem_data_14 [31:0] $end
$var wire 32 @# mem_data_15 [31:0] $end
$var wire 32 A# mem_data_16 [31:0] $end
$var wire 32 B# mem_data_17 [31:0] $end
$var wire 32 C# mem_data_18 [31:0] $end
$var wire 32 D# mem_data_19 [31:0] $end
$var wire 32 E# mem_data_2 [31:0] $end
$var wire 32 F# mem_data_20 [31:0] $end
$var wire 32 G# mem_data_21 [31:0] $end
$var wire 32 H# mem_data_22 [31:0] $end
$var wire 32 I# mem_data_23 [31:0] $end
$var wire 32 J# mem_data_24 [31:0] $end
$var wire 32 K# mem_data_3 [31:0] $end
$var wire 32 L# mem_data_4 [31:0] $end
$var wire 32 M# mem_data_5 [31:0] $end
$var wire 32 N# mem_data_6 [31:0] $end
$var wire 32 O# mem_data_7 [31:0] $end
$var wire 32 P# mem_data_8 [31:0] $end
$var wire 32 Q# mem_data_9 [31:0] $end
$var wire 1 m rst $end
$var reg 32 R# IMout [31:0] $end
$var integer 32 S# i [31:0] $end
$upscope $end
$scope module ROM1 $end
$var wire 8 T# address [7:0] $end
$var wire 1 K clk $end
$var wire 1 5 enable $end
$var wire 1 7 read $end
$var wire 36 U# rom_mem_data_0 [35:0] $end
$var wire 36 V# rom_mem_data_1 [35:0] $end
$var wire 36 W# rom_mem_data_2 [35:0] $end
$var wire 36 X# rom_mem_data_3 [35:0] $end
$var wire 36 Y# rom_mem_data_4 [35:0] $end
$var reg 36 Z# dout [35:0] $end
$upscope $end
$scope module MEM1 $end
$var wire 32 [# Din [31:0] $end
$var wire 14 \# address [13:0] $end
$var wire 1 K clk $end
$var wire 1 . enable $end
$var wire 32 ]# mem_0 [31:0] $end
$var wire 32 ^# mem_1 [31:0] $end
$var wire 32 _# mem_2 [31:0] $end
$var wire 32 `# mem_3 [31:0] $end
$var wire 32 a# mem_4 [31:0] $end
$var wire 32 b# mem_5 [31:0] $end
$var wire 32 c# mem_6 [31:0] $end
$var wire 32 d# mem_7 [31:0] $end
$var wire 32 e# mem_8 [31:0] $end
$var wire 32 f# mem_9 [31:0] $end
$var wire 1 / read $end
$var wire 1 m rst $end
$var wire 1 0 write $end
$var reg 32 g# Dout [31:0] $end
$var integer 32 h# i [31:0] $end
$upscope $end
$upscope $end
$enddefinitions $end
#0
$dumpvars
bx h#
bx g#
bz f#
bz e#
bz d#
bz c#
bz b#
bz a#
bz `#
bz _#
bz ^#
bz ]#
bx \#
b0 [#
bx Z#
bz Y#
bz X#
bz W#
bz V#
bz U#
bx T#
bx S#
bx R#
bz Q#
bz P#
bz O#
bz N#
bz M#
bz L#
bz K#
bz J#
bz I#
bz H#
bz G#
bz F#
bz E#
bz D#
bz C#
bz B#
bz A#
bz @#
bz ?#
bz >#
bz =#
bz <#
bz ;#
bz :#
bz 9#
bx 8#
bx 7#
bx 6#
bx 5#
bz 4#
bz 3#
bz 2#
bx 1#
bx 0#
bx /#
b0 .#
bx -#
bx ,#
bx +#
bx *#
b0xxxxx )#
bx (#
b0 '#
bx &#
bx %#
b0xxxxx $#
bx ##
b0 "#
bx !#
b0xxxxx ~"
bx }"
b0 |"
bx {"
bz z"
bx y"
bx x"
bz w"
bx v"
xu"
xt"
bx s"
xr"
xq"
bx p"
bx o"
bx n"
bx m"
bx l"
bx k"
bx j"
bx i"
bx h"
bx g"
bx f"
bz e"
bz d"
bz c"
bz b"
bz a"
bz `"
bz _"
bz ^"
bx ]"
bx \"
bx ["
b0 Z"
bx Y"
bx X"
b0 W"
xV"
xU"
xT"
xS"
xR"
xQ"
xP"
xO"
xN"
xM"
xL"
bx K"
b0 J"
b0 I"
bx H"
b0xxxxxxxxxxx G"
bx F"
bx E"
bx D"
bx C"
bx B"
bx A"
bx @"
bx ?"
bx >"
bx ="
bx <"
bx ;"
bx :"
bx 9"
x8"
x7"
x6"
bx 5"
x4"
03"
x2"
x1"
x0"
bx /"
x."
bx -"
b0xxxxxxxxxxx ,"
bx +"
bx *"
bx )"
x("
x'"
x&"
x%"
bx $"
x#"
bx ""
bx !"
x~
x}
bx |
bx {
bx z
bx y
b0xxxxx x
0w
b0 v
bx u
b0xxxxxxxxxxx t
0s
bx r
bx q
bx p
bx o
bx n
0m
bx l
xk
bx j
bx i
bx h
bx g
bx f
bx e
bx d
xc
xb
xa
bx `
x_
0^
x]
x\
x[
bx Z
bx Y
b0 X
b0xxxxx W
bx V
bz U
bx T
bx S
bz R
xQ
xP
xO
xN
xM
xL
0K
b0 J
b0 I
bx H
xG
bx F
bx E
bx D
bx C
bx B
bx A
bx @
bx ?
bx >
bx =
bx <
0;
0:
bx 9
08
x7
bx 6
x5
bx 4
bx 3
bx 2
bx 1
x0
x/
x.
bx -
bx ,
x+
x*
bx )
x(
bx '
x&
x%
bx $
bx #
x"
bx !
$end
#500
0+
0*
0(
b10000000 '
b10000000 @
b10000000 7#
0~
07
0}
05
b1 ""
07"
00
06"
0/
08"
0.
01"
0c
00"
0b
02"
0a
b1 9"
b0 5"
b0 ,
b0 C
b0 \#
b10000000 /"
b10000000 `
b1 z
b0 y
b0 1
b0 <
b0 !"
b0 -"
b0 5#
b0 $
b0 ?
b0 +#
b0 3#
b0 2#
b0 4#
b0 R#
b0 3
b0 Y
b0 @"
b0 J#
b0 I#
b0 H#
b0 G#
b0 F#
b0 D#
b0 C#
b0 B#
b0 A#
b0 @#
b0 ?#
b0 >#
b0 =#
b0 <#
b0 ;#
b0 Q#
b0 P#
b0 O#
b0 N#
b0 M#
b0 L#
b0 K#
b0 E#
b0 :#
b0 9#
b0 g#
b0 )
b0 A
b0 8#
b0 -
b0 D
b0 f#
b0 e#
b0 d#
b0 c#
b0 b#
b0 a#
b0 `#
b0 _#
b0 ^#
b0 ]#
b0 e"
b0 d"
b0 b"
b0 a"
b0 c"
b0 `"
b0 _"
b0 ^"
b0 !
b0 =
b0 0#
b0 /#
b0 u
b0 f"
b0 #
b0 >
b0 1#
0U"
0O
0L"
0L
0T"
0N
0O"
0&
0N"
0%
0M"
0"
0R"
0]
1Q"
1\
1P"
1[
0S"
b1 X"
0r"
0G
b0 s"
b0 H
b0 ,#
b0 H"
b0 2
b0 B
b0 |
0V"
0Q
0."
0P
b0 $"
b0 4
b0 j
b0 T#
0#"
0k
b10000000 {
b10000000 Z
b10000000 :"
b10000000 E
b10000000 ;"
04"
0_
b0 K"
b1000000000000 6#
b10000000000 S#
b100000000000000 h#
b100000 g"
1:
1m
18
1K
#1000
08
0K
#1500
b100000000000000 h#
b10000000000 S#
b1000000000000 6#
b100000 g"
18
1K
#2000
b1 y
b1 1
b1 <
b10 z
08
0K
b1000000000000000000000000001001 f#
b1010110000100001000000000001010 e#
b1011000000000000000000000000100 d#
b1010000000100001000000000001001 c#
b111000000111101111110000000010 b#
b111000000011101111110000001010 a#
b1000100000000000000000011010011 `#
b1000101110100000000000000000011 _#
b1000101110000000000000000010011 ^#
b0 W#
b10000000000000000000000001001000000 V#
b100000000000000000000001001000000 U#
0:
0m
#2500
1~
17
1}
15
b0 ""
b10 9"
b1 !"
b1 -"
1T"
1N
0Q"
0\
0P"
0[
b10 X"
b1 K"
18
1K
1;
1s
#3000
08
0K
#3500
b10010 t
b10010 ,"
b10010 G"
b1001000000 )"
b0 *"
1&"
0("
0%"
0'"
16"
1/
18"
1.
b0 9"
0~
07
0}
05
b1 ""
b100000000000000000000001001000000 Z#
b100000000000000000000001001000000 6
b100000000000000000000001001000000 l
b100000000000000000000001001000000 +"
b10 -"
b0 !"
1L"
1L
0T"
0N
b100 X"
b10 K"
18
1K
#4000
08
0K
#4500
1~
17
1}
15
b0 ""
06"
0/
08"
0.
b1 9"
b1 !"
b0 -"
0L"
0L
b101 X"
b100 K"
18
1K
#5000
08
0K
#5500
b10 9"
0~
07
0}
05
b1 ""
b1 -"
b0 !"
b11 X"
b101 K"
18
1K
#6000
08
0K
#6500
b10000100 '
b10000100 @
b10000100 7#
b1 5"
b1 ,
b1 C
b1 \#
b10000100 /"
b10000100 `
1+
1(
1~
17
1}
15
b0 ""
16"
1/
18"
1.
11"
1c
12"
1a
b0 9"
b1 !"
b10 -"
1U"
1O
b110 X"
b11 K"
18
1K
#7000
08
0K
#7500
0+
0(
06"
0/
08"
0.
01"
0c
02"
0a
b1 9"
0~
07
0}
05
b1 ""
b0 -"
b0 !"
b1000101110000000000000000010011 g#
b1000101110000000000000000010011 )
b1000101110000000000000000010011 A
b1000101110000000000000000010011 8#
b1000101110000000000000000010011 -
b1000101110000000000000000010011 D
0U"
0O
b111 X"
b110 K"
18
1K
#8000
08
0K
#8500
1~
17
1}
15
b0 ""
b10 9"
b1 !"
b1 -"
b1000 X"
b111 K"
18
1K
#9000
08
0K
#9500
b10001000 '
b10001000 @
b10001000 7#
b10 5"
b10 ,
b10 C
b10 \#
b10001000 /"
b10001000 `
1+
1(
16"
1/
18"
1.
11"
1c
12"
1a
b0 9"
0~
07
0}
05
b1 ""
b10 -"
b0 !"
b0 X"
b1000 K"
18
1K
#10000
08
0K
#10500
0+
0(
1~
17
1}
15
b0 ""
06"
0/
08"
0.
01"
0c
02"
0a
b1 9"
b1 !"
b0 -"
b1000101110000000000000000010011 P#
b1000101110100000000000000000011 g#
b1000101110100000000000000000011 )
b1000101110100000000000000000011 A
b1000101110100000000000000000011 8#
b1000101110100000000000000000011 -
b1000101110100000000000000000011 D
1Q"
1\
1P"
1[
b1 X"
b0 K"
18
1K
#11000
08
0K
#11500
b10 9"
0~
07
0}
05
b1 ""
b1 -"
b0 !"
1T"
1N
0Q"
0\
0P"
0[
b10 X"
b1 K"
18
1K
#12000
08
0K
#12500
b10001100 '
b10001100 @
b10001100 7#
b11 5"
b11 ,
b11 C
b11 \#
b10001100 /"
b10001100 `
1+
1(
1~
17
1}
15
b0 ""
16"
1/
18"
1.
11"
1c
12"
1a
b0 9"
b1 !"
b10 -"
1L"
1L
0T"
0N
b100 X"
b10 K"
18
1K
#13000
08
0K
#13500
0+
0(
06"
0/
08"
0.
01"
0c
02"
0a
b1 9"
0~
07
0}
05
b1 ""
b1000101110100000000000000000011 =#
b0 -"
b0 !"
b1000100000000000000000011010011 g#
b1000100000000000000000011010011 )
b1000100000000000000000011010011 A
b1000100000000000000000011010011 8#
b1000100000000000000000011010011 -
b1000100000000000000000011010011 D
0L"
0L
b101 X"
b100 K"
18
1K
#14000
08
0K
#14500
1~
17
1}
15
b0 ""
b10 9"
b1 !"
b1 -"
b11 X"
b101 K"
18
1K
#15000
08
0K
#15500
b10010000 '
b10010000 @
b10010000 7#
b100 5"
b100 ,
b100 C
b100 \#
b10010000 /"
b10010000 `
1+
1(
16"
1/
18"
1.
11"
1c
12"
1a
b0 9"
0~
07
0}
05
b1 ""
b10 -"
b0 !"
1U"
1O
b110 X"
b11 K"
18
1K
#16000
08
0K
#16500
0+
0(
1~
17
1}
15
b0 ""
06"
0/
08"
0.
01"
0c
02"
0a
b1 9"
b1 !"
b0 -"
b1000100000000000000000011010011 A#
b111000000011101111110000001010 g#
b111000000011101111110000001010 )
b111000000011101111110000001010 A
b111000000011101111110000001010 8#
b111000000011101111110000001010 -
b111000000011101111110000001010 D
0U"
0O
b111 X"
b110 K"
18
1K
#17000
08
0K
#17500
b10 9"
0~
07
0}
05
b1 ""
b1 -"
b0 !"
b1000 X"
b111 K"
18
1K
#18000
08
0K
#18500
b10010100 '
b10010100 @
b10010100 7#
b101 5"
b101 ,
b101 C
b101 \#
b10010100 /"
b10010100 `
1+
1(
1~
17
1}
15
b0 ""
16"
1/
18"
1.
11"
1c
12"
1a
b0 9"
b1 !"
b10 -"
b0 X"
b1000 K"
18
1K
#19000
08
0K
#19500
0+
0(
06"
0/
08"
0.
01"
0c
02"
0a
b1 9"
0~
07
0}
05
b1 ""
b111000000011101111110000001010 F#
b0 -"
b0 !"
b111000000111101111110000000010 g#
b111000000111101111110000000010 )
b111000000111101111110000000010 A
b111000000111101111110000000010 8#
b111000000111101111110000000010 -
b111000000111101111110000000010 D
1Q"
1\
1P"
1[
b1 X"
b0 K"
18
1K
#20000
08
0K
#20500
1~
17
1}
15
b0 ""
b10 9"
b1 !"
b1 -"
1T"
1N
0Q"
0\
0P"
0[
b10 X"
b1 K"
18
1K
#21000
08
0K
#21500
b10011000 '
b10011000 @
b10011000 7#
b110 5"
b110 ,
b110 C
b110 \#
b10011000 /"
b10011000 `
1+
1(
16"
1/
18"
1.
11"
1c
12"
1a
b0 9"
0~
07
0}
05
b1 ""
b10 -"
b0 !"
1L"
1L
0T"
0N
b100 X"
b10 K"
18
1K
#22000
08
0K
#22500
0+
0(
1~
17
1}
15
b0 ""
06"
0/
08"
0.
01"
0c
02"
0a
b1 9"
b1 !"
b0 -"
b111000000111101111110000000010 J#
b1010000000100001000000000001001 g#
b1010000000100001000000000001001 )
b1010000000100001000000000001001 A
b1010000000100001000000000001001 8#
b1010000000100001000000000001001 -
b1010000000100001000000000001001 D
0L"
0L
b101 X"
b100 K"
18
1K
#23000
08
0K
#23500
b10 9"
0~
07
0}
05
b1 ""
b1 -"
b0 !"
b11 X"
b101 K"
18
1K
#24000
08
0K
#24500
b10011100 '
b10011100 @
b10011100 7#
b111 5"
b111 ,
b111 C
b111 \#
b10011100 /"
b10011100 `
1+
1(
1~
17
1}
15
b0 ""
16"
1/
18"
1.
11"
1c
12"
1a
b0 9"
b1 !"
b10 -"
1U"
1O
b110 X"
b11 K"
18
1K
#25000
08
0K
#25500
0+
0(
06"
0/
08"
0.
01"
0c
02"
0a
b1 9"
0~
07
0}
05
b1 ""
b0 -"
b0 !"
b1011000000000000000000000000100 g#
b1011000000000000000000000000100 )
b1011000000000000000000000000100 A
b1011000000000000000000000000100 8#
b1011000000000000000000000000100 -
b1011000000000000000000000000100 D
0U"
0O
b111 X"
b110 K"
18
1K
#26000
08
0K
#26500
1~
17
1}
15
b0 ""
b10 9"
b1 !"
b1 -"
b1000 X"
b111 K"
18
1K
#27000
08
0K
#27500
b10100000 '
b10100000 @
b10100000 7#
b1000 5"
b1000 ,
b1000 C
b1000 \#
b10100000 /"
b10100000 `
1+
1(
16"
1/
18"
1.
11"
1c
12"
1a
b0 9"
0~
07
0}
05
b1 ""
b10 -"
b0 !"
b0 X"
b1000 K"
18
1K
#28000
08
0K
#28500
0+
0(
1~
17
1}
15
b0 ""
06"
0/
08"
0.
01"
0c
02"
0a
b1 9"
b1 !"
b0 -"
b1010110000100001000000000001010 g#
b1010110000100001000000000001010 )
b1010110000100001000000000001010 A
b1010110000100001000000000001010 8#
b1010110000100001000000000001010 -
b1010110000100001000000000001010 D
1Q"
1\
1P"
1[
b1 X"
b0 K"
18
1K
#29000
08
0K
#29500
b10 9"
0~
07
0}
05
b1 ""
b1 -"
b0 !"
1T"
1N
0Q"
0\
0P"
0[
b10 X"
b1 K"
18
1K
#30000
08
0K
#30500
b10100100 '
b10100100 @
b10100100 7#
b1001 5"
b1001 ,
b1001 C
b1001 \#
b10100100 /"
b10100100 `
1+
1(
1~
17
1}
15
b0 ""
16"
1/
18"
1.
11"
1c
12"
1a
b0 9"
b1 !"
b10 -"
1L"
1L
0T"
0N
b100 X"
b10 K"
18
1K
#31000
08
0K
#31500
0+
0(
06"
0/
08"
0.
01"
0c
02"
0a
b1 9"
0~
07
0}
05
b1 ""
b0 -"
b0 !"
b1000000000000000000000000001001 g#
b1000000000000000000000000001001 )
b1000000000000000000000000001001 A
b1000000000000000000000000001001 8#
b1000000000000000000000000001001 -
b1000000000000000000000000001001 D
0L"
0L
b101 X"
b100 K"
18
1K
#32000
08
0K
#32500
1~
17
1}
15
b0 ""
b10 9"
b1 !"
b1 -"
b11 X"
b101 K"
18
1K
#33000
08
0K
#33500
b10101000 '
b10101000 @
b10101000 7#
b1010 5"
b1010 ,
b1010 C
b1010 \#
b10101000 /"
b10101000 `
1+
1(
16"
1/
18"
1.
11"
1c
12"
1a
b0 9"
0~
07
0}
05
b1 ""
b10 -"
b0 !"
1U"
1O
b110 X"
b11 K"
18
1K
#34000
08
0K
#34500
0+
0(
1~
17
1}
15
b0 ""
06"
0/
08"
0.
01"
0c
02"
0a
b1 9"
b1 !"
b0 -"
b1000000000100000000010000000000 g#
b1000000000100000000010000000000 )
b1000000000100000000010000000000 A
b1000000000100000000010000000000 8#
b1000000000100000000010000000000 -
b1000000000100000000010000000000 D
0U"
0O
b111 X"
b110 K"
18
1K
#35000
08
0K
#35500
b10 9"
0~
07
0}
05
b1 ""
b1 -"
b0 !"
b1000 X"
b111 K"
18
1K
#36000
08
0K
#36500
b10101100 '
b10101100 @
b10101100 7#
b1011 5"
b1011 ,
b1011 C
b1011 \#
b10101100 /"
b10101100 `
1+
1(
1~
17
1}
15
b0 ""
16"
1/
18"
1.
11"
1c
12"
1a
b0 9"
b1 !"
b10 -"
b0 X"
b1000 K"
18
1K
#37000
08
0K
#37500
0+
0(
06"
0/
08"
0.
01"
0c
02"
0a
b1 9"
0~
07
0}
05
b1 ""
b0 -"
b0 !"
b1000000000100001000000000000001 g#
b1000000000100001000000000000001 )
b1000000000100001000000000000001 A
b1000000000100001000000000000001 8#
b1000000000100001000000000000001 -
b1000000000100001000000000000001 D
1Q"
1\
1P"
1[
b1 X"
b0 K"
18
1K
#38000
08
0K
#38500
1~
17
1}
15
b0 ""
b10 9"
b1 !"
b1 -"
1T"
1N
0Q"
0\
0P"
0[
b10 X"
b1 K"
18
1K
#39000
08
0K
#39500
b10110000 '
b10110000 @
b10110000 7#
b1100 5"
b1100 ,
b1100 C
b1100 \#
b10110000 /"
b10110000 `
1+
1(
16"
1/
18"
1.
11"
1c
12"
1a
b0 9"
0~
07
0}
05
b1 ""
b10 -"
b0 !"
1L"
1L
0T"
0N
b100 X"
b10 K"
18
1K
#40000
08
0K
#40500
0+
0(
1~
17
1}
15
b0 ""
06"
0/
08"
0.
01"
0c
02"
0a
b1 9"
b1 !"
b0 -"
b1000000000100001000000000000010 g#
b1000000000100001000000000000010 )
b1000000000100001000000000000010 A
b1000000000100001000000000000010 8#
b1000000000100001000000000000010 -
b1000000000100001000000000000010 D
0L"
0L
b101 X"
b100 K"
18
1K
#41000
08
0K
#41500
b10 9"
0~
07
0}
05
b1 ""
b1 -"
b0 !"
b11 X"
b101 K"
18
1K
#42000
08
0K
#42500
b10110100 '
b10110100 @
b10110100 7#
b1101 5"
b1101 ,
b1101 C
b1101 \#
b10110100 /"
b10110100 `
1+
1(
1~
17
1}
15
b0 ""
16"
1/
18"
1.
11"
1c
12"
1a
b0 9"
b1 !"
b10 -"
1U"
1O
b110 X"
b11 K"
18
1K
#43000
08
0K
#43500
0+
0(
06"
0/
08"
0.
01"
0c
02"
0a
b1 9"
0~
07
0}
05
b1 ""
b0 -"
b0 !"
b111000000111100111110000001010 g#
b111000000111100111110000001010 )
b111000000111100111110000001010 A
b111000000111100111110000001010 8#
b111000000111100111110000001010 -
b111000000111100111110000001010 D
0U"
0O
b111 X"
b110 K"
18
1K
#44000
08
0K
#44500
1~
17
1}
15
b0 ""
b10 9"
b1 !"
b1 -"
b1000 X"
b111 K"
18
1K
#45000
08
0K
